<?xml version="1.0" encoding="UTF-8"?>
<svg width="121px" height="117px" viewBox="0 0 121 117" version="1.1" xmlns="http://www.w3.org/2000/svg" xmlns:xlink="http://www.w3.org/1999/xlink">
    <!-- Generator: Sketch 58 (84663) - https://sketch.com -->
    <title>icon/calendar</title>
    <desc>Created with Sketch.</desc>
    <defs>
        <polygon id="path-1" points="0 0.0715491803 111.7941 0.0715491803 111.7941 86.7938148 0 86.7938148"></polygon>
        <polygon id="path-3" points="0.137694524 0.073796748 94.2083333 0.073796748 94.2083333 58 0.137694524 58"></polygon>
    </defs>
    <g id="Page-auto---Webdesign---Acces-Courtage" stroke="none" stroke-width="1" fill="none" fill-rule="evenodd">
        <g id="-AC---Pageauto---Desktop-HD" transform="translate(-981.000000, -1601.000000)">
            <g id="section/breakzone-contact" transform="translate(0.000000, 1501.000000)">
                <g id="icon/calendar" transform="translate(981.000000, 100.000000)">
                    <g id="Group-3">
                        <mask id="mask-2" fill="white">
                            <use xlink:href="#path-1"></use>
                        </mask>
                        <g id="Clip-2"></g>
                        <path d="M10.7750616,10.1758148 L13.5072473,10.1758148 L13.5072473,13.0634541 C13.5072473,15.4516754 15.4379477,17.3942 17.8119224,17.3942 L21.1043443,17.3942 C23.4773738,17.3942 25.4083105,15.4516754 25.4083105,13.0634541 L25.4083105,10.1758148 L37.1626397,10.1758148 L37.1626397,13.0634541 C37.1626397,15.4516754 39.0935764,17.3942 41.4666059,17.3942 L44.7587916,17.3942 C47.1327662,17.3942 49.063703,15.4516754 49.063703,13.0634541 L49.063703,10.1758148 L60.8170869,10.1758148 L60.8170869,13.0634541 C60.8170869,15.4516754 62.7480236,17.3942 65.1219983,17.3942 L68.414184,17.3942 C70.7872135,17.3942 72.7181502,15.4516754 72.7181502,13.0634541 L72.7181502,10.1758148 L84.4717705,10.1758148 L84.4717705,13.0634541 C84.4717705,15.4516754 86.4024709,17.3942 88.7764456,17.3942 L92.0688675,17.3942 C94.441897,17.3942 96.3728338,15.4516754 96.3728338,13.0634541 L96.3728338,10.1758148 L101.020125,10.1758148 C105.007467,10.1758148 108.250741,13.4387902 108.250741,17.4500607 L108.250741,29.5209541 L3.54420928,29.5209541 L3.54420928,17.4500607 C3.54420928,13.4387902 6.78771983,10.1758148 10.7750616,10.1758148 L10.7750616,10.1758148 Z M17.0513148,4.4022 C17.0513148,3.98074918 17.3929857,3.63702787 17.8119224,3.63702787 L21.1043443,3.63702787 C21.523281,3.63702787 21.8640068,3.98074918 21.8640068,4.4022 L21.8640068,13.0634541 C21.8640068,13.4851426 21.523281,13.8286262 21.1043443,13.8286262 L17.8119224,13.8286262 C17.3929857,13.8286262 17.0513148,13.4860934 17.0513148,13.0634541 L17.0513148,4.4022 Z M40.7059983,4.4022 C40.7059983,3.98074918 41.0474329,3.63702787 41.4666059,3.63702787 L44.7587916,3.63702787 C45.1779646,3.63702787 45.5193992,3.98074918 45.5193992,4.4022 L45.5193992,13.0634541 C45.5193992,13.4851426 45.1779646,13.8286262 44.7587916,13.8286262 L41.4666059,13.8286262 C41.0474329,13.8286262 40.7059983,13.4860934 40.7059983,13.0634541 L40.7059983,4.4022 Z M64.3613907,4.4022 C64.3613907,3.98074918 64.7021165,3.63702787 65.1210532,3.63702787 L68.4134751,3.63702787 C68.8324118,3.63702787 69.1738464,3.98074918 69.1738464,4.4022 L69.1738464,13.0634541 C69.1738464,13.4851426 68.8324118,13.8286262 68.4134751,13.8286262 L65.1210532,13.8286262 C64.7021165,13.8286262 64.3613907,13.4860934 64.3613907,13.0634541 L64.3613907,4.4022 Z M88.0160743,4.4022 C88.0160743,3.98074918 88.3575089,3.63702787 88.7764456,3.63702787 L92.0688675,3.63702787 C92.4878042,3.63702787 92.82853,3.98074918 92.82853,4.4022 L92.82853,13.0634541 C92.82853,13.4851426 92.4878042,13.8286262 92.0688675,13.8286262 L88.7764456,13.8286262 C88.3575089,13.8286262 88.0160743,13.4860934 88.0160743,13.0634541 L88.0160743,4.4022 Z M1.77205738,86.7938148 C2.75052152,86.7938148 3.54420928,85.9963148 3.54420928,85.0110279 L3.54420928,33.0865279 L108.249796,33.0865279 L108.249796,52.683159 C108.249796,53.6684459 109.04372,54.4659459 110.021948,54.4659459 C111.001357,54.4659459 111.7941,53.6684459 111.7941,52.683159 L111.7941,17.4500607 C111.7941,11.4729705 106.960378,6.61024098 101.020125,6.61024098 L96.3728338,6.61024098 L96.3728338,4.4022 C96.3728338,2.01397869 94.441897,0.0714540984 92.0679224,0.0714540984 L88.7755004,0.0714540984 C86.4024709,0.0714540984 84.4717705,2.01397869 84.4717705,4.4022 L84.4717705,6.61024098 L72.7181502,6.61024098 L72.7181502,4.4022 C72.7181502,2.01397869 70.7872135,0.0714540984 68.4134751,0.0714540984 L65.1210532,0.0714540984 C62.7480236,0.0714540984 60.8170869,2.01397869 60.8170869,4.4022 L60.8170869,6.61024098 L49.0627578,6.61024098 L49.0627578,4.4022 C49.0627578,2.01397869 47.1318211,0.0714540984 44.7578464,0.0714540984 L41.4666059,0.0714540984 C39.0926312,0.0714540984 37.1616945,2.01397869 37.1616945,4.4022 L37.1616945,6.61024098 L25.4083105,6.61024098 L25.4083105,4.4022 C25.4083105,2.01397869 23.4773738,0.0714540984 21.1033992,0.0714540984 L17.8119224,0.0714540984 C15.4379477,0.0714540984 13.5072473,2.01397869 13.5072473,4.4022 L13.5072473,6.61024098 L10.7750616,6.61024098 C4.833627,6.61024098 -9.45147679e-05,11.4729705 -9.45147679e-05,17.4500607 L-9.45147679e-05,85.0110279 C-9.45147679e-05,85.9963148 0.793829536,86.7938148 1.77205738,86.7938148 L1.77205738,86.7938148 Z" id="Fill-1" fill="#FFFFFF" mask="url(#mask-2)"></path>
                    </g>
                    <path d="M19.295639,103.568553 L4.43406558,103.568553 C3.86844497,103.568553 3.408722,103.105765 3.408722,102.536373 L3.408722,93.7157237 C3.408722,92.7675004 2.64516827,92 1.704361,92 C0.76332648,92 0,92.7675004 0,93.7157237 L0,102.536373 C0,104.997407 1.98933016,107 4.43406558,107 L19.295639,107 C20.2366735,107 21,106.231585 21,105.284276 C21,104.336053 20.2366735,103.568553 19.295639,103.568553" id="Fill-4" fill="#FFFFFF"></path>
                    <path d="M19.3564646,38 L13.6435354,38 C12.7360847,38 12,38.6718 12,39.5 C12,40.329 12.7360847,41 13.6435354,41 L19.3564646,41 C20.2639153,41 21,40.329 21,39.5 C21,38.6718 20.2639153,38 19.3564646,38" id="Fill-6" fill="#FFFFFF"></path>
                    <path d="M32.6435354,41 L38.3564646,41 C39.2639153,41 40,40.329 40,39.5 C40,38.6718 39.2639153,38 38.3564646,38 L32.6435354,38 C31.7360847,38 31,38.6718 31,39.5 C31,40.329 31.7360847,41 32.6435354,41" id="Fill-8" fill="#FFFFFF"></path>
                    <path d="M51.6436955,41 L57.3563045,41 C58.2638436,41 59,40.329 59,39.5 C59,38.6718 58.2638436,38 57.3563045,38 L51.6436955,38 C50.7352798,38 50,38.6718 50,39.5 C50,40.329 50.7352798,41 51.6436955,41" id="Fill-10" fill="#FFFFFF"></path>
                    <path d="M70.6435354,41 L76.3564646,41 C77.2639153,41 78,40.329 78,39.5 C78,38.6718 77.2639153,38 76.3564646,38 L70.6435354,38 C69.7360847,38 69,38.6718 69,39.5 C69,40.329 69.7360847,41 70.6435354,41" id="Fill-12" fill="#FFFFFF"></path>
                    <path d="M94.3563045,38 L88.6436955,38 C87.7352798,38 87,38.6718 87,39.5 C87,40.329 87.7352798,41 88.6436955,41 L94.3563045,41 C95.2638436,41 96,40.329 96,39.5 C96,38.6718 95.2638436,38 94.3563045,38" id="Fill-14" fill="#FFFFFF"></path>
                    <path d="M19.3564646,47 L13.6435354,47 C12.7360847,47 12,47.671 12,48.5 C12,49.329 12.7360847,50 13.6435354,50 L19.3564646,50 C20.2639153,50 21,49.329 21,48.5 C21,47.671 20.2639153,47 19.3564646,47" id="Fill-16" fill="#FFFFFF"></path>
                    <path d="M32.6435354,50 L38.3564646,50 C39.2639153,50 40,49.329 40,48.5 C40,47.671 39.2639153,47 38.3564646,47 L32.6435354,47 C31.7360847,47 31,47.671 31,48.5 C31,49.329 31.7360847,50 32.6435354,50" id="Fill-18" fill="#FFFFFF"></path>
                    <path d="M51.6436955,50 L57.3563045,50 C58.2638436,50 59,49.329 59,48.5 C59,47.671 58.2638436,47 57.3563045,47 L51.6436955,47 C50.7352798,47 50,47.671 50,48.5 C50,49.329 50.7352798,50 51.6436955,50" id="Fill-20" fill="#FFFFFF"></path>
                    <path d="M70.6435354,50 L76.3564646,50 C77.2639153,50 78,49.329 78,48.5 C78,47.671 77.2639153,47 76.3564646,47 L70.6435354,47 C69.7360847,47 69,47.671 69,48.5 C69,49.329 69.7360847,50 70.6435354,50" id="Fill-22" fill="#FFFFFF"></path>
                    <path d="M94.3563045,47 L88.6436955,47 C87.7352798,47 87,47.671 87,48.5 C87,49.329 87.7352798,50 88.6436955,50 L94.3563045,50 C95.2638436,50 96,49.329 96,48.5 C96,47.671 95.2638436,47 94.3563045,47" id="Fill-24" fill="#FFFFFF"></path>
                    <path d="M35.4506108,77.4367485 C36.105626,76.7659845 36.9667212,76.4301288 37.8275851,76.4301288 C38.6886803,76.4301288 39.5497755,76.7659845 40.2047907,77.4367485 L45.5198504,82.8796004 C46.1975321,83.5735759 47.2952376,83.5735759 47.9729193,82.8796004 L68.7943998,61.5584477 C70.1062805,60.2159723 72.2385493,60.2159723 73.5485797,61.5575003 C74.8595352,62.8999757 74.8595352,65.0844589 73.5485797,66.4269343 L49.1238217,91.4387101 C48.4886975,92.0891048 47.6449491,92.4472246 46.7468474,92.4472246 C45.8487458,92.4472246 45.0049974,92.0891048 44.3698732,91.4387101 L35.4506108,82.305235 C34.1396553,80.9627596 34.1396553,78.7792239 35.4506108,77.4367485 M32.9977732,84.8179947 L41.9168043,93.9517065 C43.2069437,95.2728653 44.9217327,96 46.7468474,96 C48.5717309,96 50.2874451,95.2728653 51.5768906,93.9517065 L76.0023424,68.9387465 C78.6658859,66.2111624 78.6658859,61.7730353 76.0023424,59.0456881 C73.338799,56.318104 69.0048743,56.318104 66.3415622,59.0456881 L46.7468474,79.1112899 L42.6576283,74.9249362 C39.99501,72.1973521 35.6610854,72.1973521 32.9968481,74.9249362 C30.3342298,77.6522835 30.3342298,82.0904105 32.9977732,84.8179947" id="Fill-26" fill="#FFFFFF"></path>
                    <g id="Group-30" transform="translate(26.000000, 59.000000)">
                        <mask id="mask-4" fill="white">
                            <use xlink:href="#path-3"></use>
                        </mask>
                        <g id="Clip-29"></g>
                        <path d="M70.8315339,54.4634146 C59.8841027,54.4634146 50.9787134,45.5262276 50.9787134,34.5397073 C50.9787134,23.553187 59.8850424,14.616 70.8315339,14.616 C81.7780254,14.616 90.6843543,23.553187 90.6843543,34.5397073 C90.6843543,45.5262276 81.7780254,54.4634146 70.8315339,54.4634146 M85.0762568,15.9523577 L85.0762568,1.84208943 C85.0762568,0.864813008 84.2878199,0.073796748 83.3142555,0.073796748 C82.3413959,0.073796748 81.5522543,0.864813008 81.5522543,1.84208943 L81.5522543,13.6969593 C78.3393037,12.0253333 74.6931358,11.0794146 70.8315339,11.0794146 C57.9414376,11.0794146 47.4547109,21.6035854 47.4547109,34.5397073 C47.4547109,37.9279919 48.1750171,41.1495854 49.468091,44.0618455 L1.89969577,44.0618455 C0.926836149,44.0618455 0.137694524,44.8528618 0.137694524,45.8301382 C0.137694524,46.8062358 0.926836149,47.5984309 1.89969577,47.5984309 L51.4201535,47.5984309 C55.6205295,53.8676179 62.7538154,58 70.8315339,58 C83.7216302,58 94.2083568,47.4758293 94.2083568,34.5397073 C94.2083568,26.980374 90.625621,20.245065 85.0762568,15.9523577" id="Fill-28" fill="#FFFFFF" mask="url(#mask-4)"></path>
                    </g>
                    <path d="M98.0956819,107.342145 C98.213511,107.103641 98.2821654,106.836393 98.2821654,106.552516 L98.2821654,104.381987 C98.2821654,103.398276 97.4842057,102.600333 96.5004751,102.600333 C95.5169821,102.600333 94.7187848,103.398276 94.7187848,104.381987 L94.7187848,106.552516 C94.7187848,106.836393 94.786489,107.103641 94.9052684,107.342145 C88.4930836,106.608104 83.3919854,101.507347 82.6581666,95.0950555 C82.8957253,95.2138324 83.1639291,95.2815353 83.4478117,95.2815353 L85.6174355,95.2815353 C86.6018788,95.2815353 87.3991258,94.484542 87.3991258,93.4998812 C87.3991258,92.515458 86.6018788,91.7182272 85.6174355,91.7182272 L83.4478117,91.7182272 C83.1639291,91.7182272 82.8957253,91.7871178 82.6581666,91.9049445 C83.3919854,85.4926528 88.4930836,80.391896 94.9052684,79.6578545 C94.786489,79.8963586 94.7187848,80.1636067 94.7187848,80.4474836 L94.7187848,82.6180134 C94.7187848,83.6024366 95.5169821,84.3996674 96.5004751,84.3996674 C97.4842057,84.3996674 98.2821654,83.6024366 98.2821654,82.6180134 L98.2821654,80.4474836 C98.2821654,80.1636067 98.213511,79.8963586 98.0956819,79.6578545 C104.507867,80.391896 109.608965,85.4926528 110.343021,91.9049445 C110.104512,91.7871178 109.837259,91.7182272 109.553138,91.7182272 L107.382802,91.7182272 C106.399071,91.7182272 105.601112,92.515458 105.601112,93.4998812 C105.601112,94.484542 106.399071,95.2815353 107.382802,95.2815353 L109.553138,95.2815353 C109.837259,95.2815353 110.104512,95.2138324 110.343021,95.0950555 C109.608015,101.507347 104.507867,106.608104 98.0956819,107.342145 M96.5004751,76 C86.8506027,76 79,83.8511555 79,93.4998812 C79,103.149795 86.8506027,111 96.5004751,111 C106.150348,111 114,103.149795 114,93.4998812 C114,83.8511555 106.149397,76 96.5004751,76" id="Fill-31" fill="#FFFFFF"></path>
                    <path d="M100.334972,91.5221424 L98.3300561,91.5221424 L98.3300561,89.7389288 C98.3300561,88.7788083 97.5841236,88 96.6650281,88 C95.7448226,88 95,88.7788083 95,89.7389288 L95,93.2610712 C95,94.2221192 95.7448226,95 96.6650281,95 L100.334972,95 C101.254289,95 102,94.2221192 102,93.2610712 C102,92.3000232 101.254289,91.5221424 100.334972,91.5221424" id="Fill-33" fill="#FFFFFF"></path>
                </g>
            </g>
        </g>
    </g>
</svg>