<?xml version="1.0" encoding="UTF-8"?>
<svg width="222px" height="73px" viewBox="0 0 222 73" version="1.1" xmlns="http://www.w3.org/2000/svg" xmlns:xlink="http://www.w3.org/1999/xlink">
    <!-- Generator: Sketch 58 (84663) - https://sketch.com -->
    <title>logo_baseline</title>
    <desc>Created with Sketch.</desc>
    <g id="Homepage---Webdesign---Acces-Courtage" stroke="none" stroke-width="1" fill="none" fill-rule="evenodd">
        <g id="-AC---Homepage---Desktop-HD" transform="translate(-132.000000, -66.000000)">
            <g id="header-desktop" transform="translate(0.000000, 50.000000)">
                <g id="logo_baseline" transform="translate(130.000000, 15.000000)">
                    <g id="Group-65" transform="translate(2.767347, 1.387500)">
                        <path d="M147.169318,17.4336653 L147.169318,18.4390833 L147.645571,18.4390833 C148.045009,18.4390833 148.272894,18.2426223 148.272894,17.9370163 C148.272894,17.6301263 148.045009,17.4336653 147.645571,17.4336653 L147.169318,17.4336653 Z M148.222964,18.847414 L148.884854,20.0736901 L148.298499,20.0736901 L147.696781,18.9501387 L147.611004,18.9501387 L147.169318,18.9501387 L147.169318,20.0736901 L146.643135,20.0736901 L146.643135,16.9226099 L147.611004,16.9226099 C148.358671,16.9226099 148.800357,17.3656102 148.800357,17.9370163 C148.800357,18.3877209 148.604479,18.694611 148.222964,18.847414 L148.222964,18.847414 Z M147.576437,21.3436241 C148.349709,21.3436241 149.011599,21.0714037 149.564667,20.5166903 C150.116455,19.963261 150.39683,19.2904142 150.39683,18.49815 C150.39683,17.7058858 150.116455,17.0420274 149.564667,16.4885981 C149.011599,15.9351688 148.349709,15.6539599 147.576437,15.6539599 C146.804446,15.6539599 146.133595,15.9351688 145.581807,16.4885981 C145.030018,17.0420274 144.758605,17.7058858 144.758605,18.49815 C144.758605,19.2904142 145.030018,19.963261 145.581807,20.5166903 C146.133595,21.0714037 146.804446,21.3436241 147.576437,21.3436241 L147.576437,21.3436241 Z M147.576437,15.415125 C148.426524,15.415125 149.148585,15.7130266 149.751584,16.3178183 C150.354582,16.9226099 150.6516,17.6468191 150.6516,18.49815 C150.6516,19.350765 150.354582,20.0736901 149.751584,20.6784817 C149.148585,21.2832734 148.426524,21.581175 147.576437,21.581175 C146.727631,21.581175 146.00557,21.2832734 145.403852,20.6784817 C144.799573,20.0736901 144.502555,19.350765 144.502555,18.49815 C144.502555,17.6468191 144.799573,16.9226099 145.403852,16.3178183 C146.00557,15.7130266 146.727631,15.415125 147.576437,15.415125 L147.576437,15.415125 Z" id="Fill-1" fill="#1B060A"></path>
                        <path d="M106.785989,37.4698223 C106.785989,34.3471398 109.563443,31.81419 112.9887,31.81419 L112.9887,24.6642 C110.134319,24.6642 107.57145,26.2718083 106.785989,29.0229731 L106.785989,25.0868187 L99.9219796,25.0868187 L99.9219796,46.245375 L106.785989,46.245375 L106.785989,37.4850145 L106.785989,37.4698223 Z" id="Fill-3" fill="#1B060A"></path>
                        <path d="M40.7379303,43.7983263 C38.6755871,41.6402279 37.6629,39.0151402 37.6629,35.8401656 C37.6629,32.6651911 38.6755871,30.0401034 40.7379303,27.8806233 C42.8002734,25.7225248 45.3498155,24.6642 48.4235254,24.6642 C52.4280625,24.6642 55.8675017,26.7808497 57.6472959,30.1257641 L51.9038946,33.5964064 C51.1750768,32.1995834 50.0026307,31.5225871 48.3839158,31.5225871 C46.118243,31.5225871 44.4189884,33.299357 44.4189884,35.8401656 C44.4189884,38.3795926 46.118243,40.1577441 48.3839158,40.1577441 C50.0422404,40.1577441 51.2160068,39.4379174 51.9038946,38.0410944 L57.6472959,41.5131184 C55.8675017,44.8980999 52.4280625,47.0161313 48.4235254,47.0161313 C45.3498155,47.0161313 42.8002734,45.9564248 40.7379303,43.7983263" id="Fill-5" fill="#40BEE2"></path>
                        <path d="M72.478705,35.8401656 C72.478705,33.2579083 70.7857539,31.4369264 68.4074668,31.4369264 C66.1107359,31.4369264 64.3783221,33.2579083 64.3783221,35.8401656 C64.3783221,38.422423 66.1107359,40.2434049 68.4074668,40.2434049 C70.7857539,40.2434049 72.478705,38.422423 72.478705,35.8401656 M60.79116,43.7983263 C58.6943737,41.6402279 57.6472959,38.9736914 57.6472959,35.8401656 C57.6472959,32.7080215 58.6943737,30.0829337 60.79116,27.9248353 C62.8866309,25.7653552 65.4253999,24.6642 68.4074668,24.6642 C71.4316273,24.6642 73.9703962,25.7653552 76.025089,27.9248353 C78.1218753,30.0829337 79.1689531,32.7080215 79.1689531,35.8401656 C79.1689531,38.9736914 78.1218753,41.6402279 76.025089,43.7983263 C73.9703962,45.9578064 71.4316273,47.0161313 68.4074668,47.0161313 C65.4253999,47.0161313 62.8866309,45.9578064 60.79116,43.7983263" id="Fill-7" fill="#40BEE2"></path>
                        <path d="M92.3696182,25.4349562 L99.153349,25.4349562 L99.153349,46.4282638 L92.3696182,46.4282638 L92.3696182,44.3289331 C91.1438517,46.133645 89.2631871,47.0161313 86.688944,47.0161313 C82.2753842,47.0161313 79.1689531,43.8246552 79.1689531,37.9884609 L79.1689531,25.4349562 L85.9526838,25.4349562 L85.9526838,37.1073449 C85.9526838,39.2902652 87.1784503,40.4235201 89.017767,40.4235201 C91.1438517,40.4235201 92.3696182,39.0806062 92.3696182,36.603067 L92.3696182,25.4349562 Z" id="Fill-9" fill="#1B060A"></path>
                        <path d="M139.912254,40.4547935 C141.228957,40.4547935 142.332214,40.0320163 143.140254,39.18508 C143.946907,38.3381438 144.371023,37.2369886 144.371023,35.8401656 C144.371023,34.4433426 143.946907,33.343569 143.140254,32.4966328 C142.332214,31.6496966 141.228957,31.2255377 139.912254,31.2255377 C138.595552,31.2255377 137.490909,31.6496966 136.684255,32.4966328 C135.877602,33.343569 135.453485,34.4433426 135.453485,35.8401656 C135.453485,37.2369886 135.877602,38.3381438 136.684255,39.18508 C137.490909,40.0320163 138.595552,40.4547935 139.912254,40.4547935 L139.912254,40.4547935 Z M144.371023,25.2569172 L151.420231,25.2569172 L151.420231,46.4234141 L144.371023,46.4234141 L144.371023,44.4767043 C142.926809,46.169195 140.930966,47.0161313 138.340528,47.0161313 C135.495065,47.0161313 133.118072,45.9578064 131.206775,43.8411567 C129.295478,41.6830583 128.361312,39.0151402 128.361312,35.8401656 C128.361312,32.6651911 129.295478,29.9986546 131.206775,27.8820049 C133.118072,25.7225248 135.495065,24.6642 138.340528,24.6642 C140.930966,24.6642 142.926809,25.5111362 144.371023,27.2050086 L144.371023,25.2569172 Z" id="Fill-11" fill="#1B060A"></path>
                        <path d="M162.989866,39.4261353 C164.221082,39.4261353 165.254008,39.0129788 166.00829,38.2297308 C166.801452,37.4061093 167.199329,36.3738909 167.199329,35.1371128 C167.199329,33.9003347 166.801452,32.8694621 166.00829,32.0862141 C165.254008,31.2612468 164.221082,30.8494361 162.989866,30.8494361 C161.75865,30.8494361 160.725725,31.2612468 159.932562,32.0862141 C159.178281,32.8694621 158.780403,33.9003347 158.780403,35.1371128 C158.780403,36.3738909 159.178281,37.4061093 159.932562,38.2297308 C160.725725,39.0129788 161.75865,39.4261353 162.989866,39.4261353 L162.989866,39.4261353 Z M167.199329,25.2415425 L173.710518,25.2415425 L173.710518,45.0340289 C173.710518,51.8787005 168.470722,54.7236938 163.267214,54.7236938 C158.85946,54.7236938 155.246165,52.9916662 153.499134,49.6931427 L158.97999,46.3946193 C159.932562,47.9611151 161.321893,48.744363 163.188157,48.744363 C165.571532,48.744363 167.199329,47.4672114 167.199329,45.0340289 L167.199329,43.0543765 C165.84888,44.7446847 163.982615,45.6113714 161.639417,45.6113714 C158.899637,45.6113714 156.636791,44.5804987 154.849584,42.559127 C153.062377,40.539101 152.188861,38.0655449 152.188861,35.1371128 C152.188861,32.2100265 153.062377,29.7351246 154.849584,27.7150987 C156.636791,25.6950727 158.899637,24.6642 161.639417,24.6642 C163.982615,24.6642 165.84888,25.5295409 167.199329,27.2211949 L167.199329,25.2415425 Z" id="Fill-13" fill="#1B060A"></path>
                        <path d="M188.579296,33.5549577 C188.045779,31.5654175 186.730752,30.5913718 184.718668,30.5913718 C182.623474,30.5913718 181.268233,31.5654175 180.69316,33.5549577 L188.579296,33.5549577 Z M180.77493,38.422423 C181.473328,40.1591258 182.993451,41.006062 185.375511,41.006062 C186.854078,41.006062 188.085993,40.4976239 189.112813,39.5235782 L194.041815,43.0798813 C192.029731,45.7035874 189.072598,47.0161313 185.21063,47.0161313 C181.71998,47.0161313 178.927727,45.9578064 176.832533,43.8839871 C174.737338,41.7673374 173.710518,39.1008009 173.710518,35.882996 C173.710518,32.7080215 174.737338,30.041485 176.790977,27.8820049 C178.844617,25.7239065 181.473328,24.6642 184.636898,24.6642 C187.716017,24.6642 190.222743,25.7239065 192.234827,27.8405562 C194.246911,29.9572058 195.232176,32.6237423 195.232176,35.7987169 C195.232176,36.7299322 195.150405,37.6183172 194.945309,38.422423 L180.77493,38.422423 Z" id="Fill-15" fill="#1B060A"></path>
                        <path d="M35.3784912,15.7905935 C36.6951933,15.7905935 37.799837,15.3664346 38.6064903,14.52088 C39.4131436,13.6739438 39.8372602,12.5727886 39.8372602,11.1759656 C39.8372602,9.77914263 39.4131436,8.6779874 38.6064903,7.8310512 C37.799837,6.984115 36.6951933,6.56133771 35.3784912,6.56133771 C34.0617891,6.56133771 32.9571454,6.984115 32.1504921,7.8310512 C31.3438388,8.6779874 30.9197222,9.77914263 30.9197222,11.1759656 C30.9197222,12.5727886 31.3438388,13.6739438 32.1504921,14.52088 C32.9571454,15.3664346 34.0617891,15.7905935 35.3784912,15.7905935 L35.3784912,15.7905935 Z M39.8372602,0.592717178 L46.8864673,0.592717178 L46.8864673,21.7592141 L39.8372602,21.7592141 L39.8372602,19.8111226 C38.393046,21.504995 36.3972028,22.3519313 33.8067647,22.3519313 C30.9613022,22.3519313 28.5843085,21.2936064 26.6730115,19.1769567 C24.7617145,17.0174766 23.827549,14.3509402 23.827549,11.1759656 C23.827549,8.00099109 24.7617145,5.3344546 26.6730115,3.21780491 C28.5843085,1.05832484 30.9613022,0 33.8067647,0 C36.3972028,0 38.393046,0.846936201 39.8372602,2.5408086 L39.8372602,0.592717178 Z" id="Fill-17" fill="#1B060A"></path>
                        <path d="M49.9614976,19.1341263 C47.8978341,16.9746463 46.8864673,14.3509402 46.8864673,11.1759656 C46.8864673,8.00099109 47.8978341,5.37590336 49.9614976,3.21642329 C52.0238408,1.05832484 54.5733828,0 57.6470928,0 C61.6516298,0 65.091069,2.11664969 66.8708633,5.46156411 L61.1261416,8.93220642 C60.3986441,7.5340018 59.2248777,6.85700549 57.6074831,6.85700549 C55.3418103,6.85700549 53.6425557,8.63515702 53.6425557,11.1759656 C53.6425557,13.7153926 55.3418103,15.4935441 57.6074831,15.4935441 C59.2658077,15.4935441 60.4395741,14.7737174 61.1261416,13.3768944 L66.8708633,16.8475368 C65.091069,20.2338999 61.6516298,22.3519312 57.6470928,22.3519312 C54.5733828,22.3519312 52.0238408,21.2922248 49.9614976,19.1341263" id="Fill-19" fill="#1B060A"></path>
                        <path d="M69.9456904,19.1341263 C67.8834834,16.9746463 66.8708633,14.3509402 66.8708633,11.1759656 C66.8708633,8.00099109 67.8834834,5.37590336 69.9456904,3.21642329 C72.0092176,1.05832484 74.5572709,0 77.6320981,0 C81.6363706,0 85.0742623,2.11664969 86.8552592,5.46156411 L81.1109171,8.93220642 C80.3821474,7.5340018 79.2097788,6.85700549 77.5911708,6.85700549 C75.3256477,6.85700549 73.6278256,8.63515702 73.6278256,11.1759656 C73.6278256,13.7153926 75.3256477,15.4935441 77.5911708,15.4935441 C79.2493858,15.4935441 80.4230747,14.7737174 81.1109171,13.3768944 L86.8552592,16.8475368 C85.0742623,20.2338999 81.6363706,22.3519312 77.6320981,22.3519312 C74.5572709,22.3519312 72.0092176,21.2922248 69.9456904,19.1341263" id="Fill-21" fill="#1B060A"></path>
                        <path d="M136.921138,9.02118805 C136.891952,9.01013437 136.862766,9.00046239 136.832254,8.98940871 C136.650506,8.92585003 136.470084,8.86505476 136.288336,8.81116805 C136.240578,8.79596924 136.194146,8.78215213 136.147714,8.76833503 C135.979232,8.71997516 135.812077,8.67576042 135.644922,8.6343091 C135.595837,8.62187371 135.546751,8.60943831 135.498993,8.59700292 C135.290712,8.55002476 135.085085,8.50442831 134.883438,8.46712213 C132.931968,8.00010397 131.346648,7.57730055 131.346648,6.77314502 C131.346648,6.09610686 131.834847,5.75758778 132.851044,5.75758778 C133.948165,5.75758778 134.761388,6.34895989 135.371636,7.57730055 L141.061543,4.91059922 C139.476222,1.65114408 136.712857,0 132.689195,0 C130.453828,0 128.502358,0.634205133 126.917038,1.86254579 C126.719371,2.01591566 126.533643,2.1775758 126.359855,2.34752619 C126.205966,2.49813264 126.065343,2.65702935 125.931354,2.82007119 C125.914108,2.84217856 125.892882,2.8601408 125.875636,2.88224817 C125.585104,3.24701975 125.341005,3.64357067 125.142011,4.07051922 C125.138031,4.0801912 125.131398,4.08848146 125.127418,4.09815343 C124.83158,4.74203054 124.645852,5.45499317 124.566254,6.23151449 C124.535742,6.51752857 124.518496,6.80906949 124.518496,7.1116641 L124.518496,7.1116641 C124.515842,7.35760857 124.529109,7.59249936 124.550335,7.8204816 C124.555641,7.89094884 124.566254,7.95727094 124.572887,8.02497476 C124.592787,8.18663489 124.617993,8.34276818 124.648505,8.49613805 C124.661771,8.56246016 124.675038,8.63154568 124.689631,8.69648608 C124.732083,8.87472674 124.779841,9.04605884 124.83556,9.2104824 C124.844846,9.23811661 124.851479,9.26713253 124.860766,9.29476674 C124.92577,9.47853424 125.002715,9.65401148 125.083639,9.82396187 C125.114151,9.88613884 125.147317,9.94693411 125.179156,10.0077294 C125.237528,10.1168845 125.298553,10.2246579 125.362231,10.3269045 C125.400703,10.3904632 125.440502,10.4526402 125.481627,10.5134354 C125.554592,10.6225906 125.632863,10.7262188 125.71246,10.8270837 C125.746953,10.8699167 125.778792,10.9168949 125.813284,10.9583462 C125.813284,10.9583462 125.813284,10.9583462 125.813284,10.9583462 C127.122666,12.5224425 129.196185,13.2782382 130.9407,13.6734074 C132.892169,14.1818769 134.436364,14.6046803 134.436364,15.4102175 C134.436364,16.17154 133.826115,16.5528922 132.608271,16.5528922 C131.021624,16.5528922 129.965629,15.7901879 129.436304,14.2247099 L125.675315,16.1964108 C125.573165,17.355666 125.27202,18.3974757 124.789128,19.3066412 C126.492518,21.3280837 129.11526,22.3519312 132.64807,22.3519312 C135.045286,22.3519312 137.079006,21.7591774 138.826175,20.6165028 C140.57467,19.4738282 141.427692,17.6541154 141.427692,15.2388854 C141.459531,11.6077502 139.256002,9.87646687 136.921138,9.02118805" id="Fill-23" fill="#1B060A"></path>
                        <path d="M122.479554,20.8604632 C121.011078,21.8121576 119.352825,22.4115225 117.533589,22.6531584 L117.533589,24.9385748 L114.525961,24.9385748 L114.525961,31.9284662 L117.533589,31.9284662 L117.533589,38.0922058 C117.533589,41.3590149 118.335885,43.6336319 119.940477,44.9160569 C121.584333,46.1566344 124.390406,46.5292126 128.361312,46.0324417 L128.361312,39.8282044 C125.353684,39.9942447 124.190159,39.7458592 124.190159,37.9261656 L124.190159,31.9284662 L128.361312,31.9284662 L128.361312,24.9385748 L124.190159,24.9385748 L124.190159,19.2689063 C123.721607,19.8804205 123.158822,20.4203889 122.479554,20.8604632" id="Fill-25" fill="#1B060A"></path>
                        <path d="M100.186775,8.88937605 C99.6532581,6.89983587 98.3382319,5.92579016 96.326148,5.92579016 C94.2309533,5.92579016 92.8757123,6.89983587 92.3006396,8.88937605 L100.186775,8.88937605 Z M92.3824099,13.7568414 C93.0808081,15.4935441 94.6009301,16.3404803 96.9829908,16.3404803 C98.4615575,16.3404803 99.693473,15.8320423 100.720293,14.8579966 L105.649295,18.4142996 C103.635871,21.0380058 100.680078,22.3519313 96.8181099,22.3519313 C93.3274593,22.3519313 90.5352069,21.2936064 88.4400123,19.2184055 C86.3448176,17.1017558 85.317998,14.4352193 85.317998,11.218796 C85.317998,8.04243984 86.3448176,5.37590336 88.3984569,3.21780491 C90.4520962,1.05832484 93.0808081,0 96.2443777,0 C99.3234962,0 101.828882,1.05832484 103.842307,3.17497453 C105.854391,5.29162422 106.839655,7.95816071 106.839655,11.1331352 C106.839655,12.0643506 106.757885,12.9527355 106.552789,13.7568414 L92.3824099,13.7568414 Z" id="Fill-27" fill="#1B060A"></path>
                        <path d="M118.048999,8.46659876 C120.901166,9.01648556 124.557185,10.5404181 124.517844,15.2393251 C124.517844,17.6530242 123.674652,19.4726245 121.946305,20.6152285 C120.217957,21.7592141 118.210294,22.3519312 115.838078,22.3519312 C111.338866,22.3519312 108.325405,20.6580588 106.839655,17.3131444 L112.664632,14.2238306 C113.186546,15.7905935 114.231685,16.551869 115.798737,16.551869 C117.00386,16.551869 117.607077,16.1705404 117.607077,15.409265 C117.607077,14.6037776 116.080676,14.1810003 114.151693,13.6739438 C111.379518,13.0383963 107.762839,11.4716334 107.803491,7.11260614 C107.803491,4.86884694 108.607343,3.0906954 110.174396,1.86243067 C111.740137,0.635547557 113.66912,0 115.878729,0 C119.857338,0 122.588862,1.65104202 124.155914,4.91029569 L118.531572,7.57683218 C117.928355,6.34994907 117.124503,5.75723189 116.040024,5.75723189 C115.035537,5.75723189 114.552963,6.09573005 114.552963,6.77272636 C114.552963,7.57683218 116.120016,8.00099109 118.048999,8.46659876" id="Fill-29" fill="#1B060A"></path>
                        <polygon id="Fill-31" fill="#1B060A" points="5.38041429 60.0637486 0.73460456 60.0637486 0.73460456 64.0721987 5.21368663 64.0721987 5.21368663 64.7877161 0.73460456 64.7877161 0.73460456 69.3680625 0 69.3680625 0 59.3482312 5.38041429 59.3482312"></polygon>
                        <path d="M10.768769,68.6593671 C11.632949,68.6593671 12.3647891,68.34973 12.9642893,67.7438021 C13.5651128,67.1378743 13.8575841,66.3851357 13.8575841,65.5149486 C13.8575841,64.6434268 13.5651128,63.8906882 12.9642893,63.2847604 C12.3647891,62.6801671 11.632949,62.3691954 10.768769,62.3691954 C9.90458889,62.3691954 9.1581914,62.6801671 8.55869128,63.2847604 C7.95786776,63.8906882 7.66539641,64.6434268 7.66539641,65.5149486 C7.66539641,66.3851357 7.95786776,67.1378743 8.55869128,67.7438021 C9.1581914,68.34973 9.90458889,68.6593671 10.768769,68.6593671 L10.768769,68.6593671 Z M13.8575841,61.8233264 L14.6039816,61.8233264 L14.6039816,69.2052361 L13.8575841,69.2052361 L13.8575841,67.5369325 C13.2276458,68.6740482 12.1014326,69.3680625 10.7105394,69.3680625 C9.67034712,69.3680625 8.77837565,68.9983664 8.03065475,68.2603089 C7.28425726,67.5075704 6.91767551,66.5920054 6.91767551,65.5149486 C6.91767551,64.4365571 7.28425726,63.5209921 8.03065475,62.7829346 C8.77837565,62.0301961 9.67034712,61.6605 10.7105394,61.6605 C12.1014326,61.6605 13.2276458,62.3545143 13.8575841,63.49163 L13.8575841,61.8233264 Z" id="Fill-33" fill="#1B060A"></path>
                        <path d="M17.9798829,68.2603089 C17.266973,67.5222514 16.9098735,66.6066864 16.9098735,65.5136139 C16.9098735,64.4218761 17.266973,63.5063111 17.9798829,62.7682536 C18.6927928,62.0301961 19.5913429,61.6605 20.6613524,61.6605 C22.0446296,61.6605 23.2564476,62.3838764 23.7708256,63.5503543 L23.1855433,63.9040346 C22.7717204,62.9591075 21.802266,62.3691954 20.6613524,62.3691954 C19.8053448,62.3691954 19.0924349,62.6788325 18.5084418,63.2847604 C17.9231595,63.8906882 17.6382534,64.6287457 17.6382534,65.5136139 C17.6382534,66.3998168 17.9231595,67.1525554 18.5084418,67.7584832 C19.0924349,68.3644111 19.8053448,68.6593671 20.6613524,68.6593671 C21.802266,68.6593671 22.7575395,68.0681204 23.2280859,67.1231932 L23.827549,67.4928893 C23.2564476,68.6286704 22.0446296,69.3680625 20.6613524,69.3680625 C19.5913429,69.3680625 18.6927928,68.9983664 17.9798829,68.2603089" id="Fill-35" fill="#1B060A"></path>
                        <path d="M25.6536335,69.3680625 L26.6133686,69.3680625 L26.6133686,62.1956179 L25.6536335,62.1956179 L25.6536335,69.3680625 Z M26.9014627,59.8860673 C26.9379083,60.6317111 25.3256228,60.6317111 25.3655394,59.8860673 C25.3256228,59.1689526 26.9379083,59.1689526 26.9014627,59.8860673 L26.9014627,59.8860673 Z" id="Fill-37" fill="#1B060A"></path>
                        <polygon id="Fill-39" fill="#1B060A" points="29.5515411 69.3680625 30.4016466 69.3680625 30.4016466 58.577475 29.5515411 58.577475"></polygon>
                        <path d="M33.3398786,69.3680625 L34.2996153,69.3680625 L34.2996153,62.1956179 L33.3398786,62.1956179 L33.3398786,69.3680625 Z M34.5877099,59.8860673 C34.6258911,60.6317111 33.0136028,60.6317111 33.051784,59.8860673 C33.0136028,59.1689526 34.6258911,59.1689526 34.5877099,59.8860673 L34.5877099,59.8860673 Z" id="Fill-40" fill="#1B060A"></path>
                        <path d="M39.9687918,62.8280559 L37.7529844,62.8280559 L37.7529844,67.4856842 C37.7529844,68.7333326 38.4521469,68.7903383 39.9687918,68.6465284 L39.9687918,69.2917298 C37.9600441,69.5780541 36.9933174,69.0766626 36.9933174,67.4856842 L36.9933174,62.8280559 L35.3570082,62.8280559 L35.3570082,62.1258488 L36.9933174,62.1258488 L36.9933174,60.3340546 L37.7529844,60.1189875 L37.7529844,62.1258488 L39.9687918,62.1258488 L39.9687918,62.8280559 Z" id="Fill-41" fill="#1B060A"></path>
                        <path d="M44.5885159,68.6593671 C45.452696,68.6593671 46.1845361,68.34973 46.7840362,67.7438021 C47.3848597,67.1378743 47.6773311,66.3851357 47.6773311,65.5149486 C47.6773311,64.6434268 47.3848597,63.8906882 46.7840362,63.2847604 C46.1845361,62.6801671 45.452696,62.3691954 44.5885159,62.3691954 C43.7243358,62.3691954 42.9779383,62.6801671 42.3784382,63.2847604 C41.7776147,63.8906882 41.4851433,64.6434268 41.4851433,65.5149486 C41.4851433,66.3851357 41.7776147,67.1378743 42.3784382,67.7438021 C42.9779383,68.34973 43.7243358,68.6593671 44.5885159,68.6593671 L44.5885159,68.6593671 Z M47.6773311,61.8233264 L48.4237286,61.8233264 L48.4237286,69.2052361 L47.6773311,69.2052361 L47.6773311,67.5369325 C47.0473928,68.6740482 45.9211795,69.3680625 44.5302863,69.3680625 C43.4900941,69.3680625 42.5981226,68.9983664 41.8504017,68.2603089 C41.1040042,67.5075704 40.7374224,66.5920054 40.7374224,65.5149486 C40.7374224,64.4365571 41.1040042,63.5209921 41.8504017,62.7829346 C42.5981226,62.0301961 43.4900941,61.6605 44.5302863,61.6605 C45.9211795,61.6605 47.0473928,62.3545143 47.6773311,63.49163 L47.6773311,61.8233264 Z" id="Fill-42" fill="#1B060A"></path>
                        <path d="M54.5727735,62.8280559 L52.356966,62.8280559 L52.356966,67.4856842 C52.356966,68.7333326 53.0561286,68.7903383 54.5727735,68.6465284 L54.5727735,69.2917298 C52.5640257,69.5780541 51.597299,69.0766626 51.597299,67.4856842 L51.597299,62.8280559 L49.9609898,62.8280559 L49.9609898,62.1258488 L51.597299,62.1258488 L51.597299,60.3340546 L52.356966,60.1189875 L52.356966,62.1258488 L54.5727735,62.1258488 L54.5727735,62.8280559 Z" id="Fill-43" fill="#1B060A"></path>
                        <path d="M57.8870724,63.1515543 C57.3102905,63.6681505 56.9752076,64.3476014 56.8996766,65.1752233 L63.0066989,65.1752233 C62.9311679,64.3035505 62.596085,63.609416 62.0344093,63.122187 C61.4727335,62.6202744 60.8190473,62.3693181 60.0445116,62.3693181 C59.1779653,62.3693181 58.4638544,62.634958 57.8870724,63.1515543 M62.7485203,62.8124963 C63.4475251,63.5800488 63.7963408,64.4957724 63.7963408,65.5436485 C63.7963408,65.6184014 63.7812346,65.823972 63.7812346,65.898725 L56.8996766,65.898725 C56.9903138,66.725012 57.3253967,67.3897792 57.9172848,67.9063755 C58.5105462,68.4082881 59.2548696,68.6592444 60.1200425,68.6592444 C61.3354045,68.6592444 62.2774817,68.1279646 62.7485203,67.3163612 L63.4173127,67.69947 C62.7938389,68.7179789 61.5784769,69.3680625 60.1049363,69.3680625 C58.934893,69.3680625 57.9777096,69.0143209 57.2333862,68.2908192 C56.4890628,67.5673175 56.1100347,66.6369103 56.1100347,65.5142812 C56.1100347,64.4063358 56.4739566,63.4906123 57.2031738,62.7671105 C57.9474972,62.0289252 58.8895744,61.6605 60.0445116,61.6605 C61.1527569,61.6605 62.0646217,62.0436088 62.7485203,62.8124963" id="Fill-44" fill="#1B060A"></path>
                        <path d="M71.5245364,61.6605 L72.2512776,61.6605 L72.2512776,69.201722 L71.5245364,69.201722 L71.5245364,67.7687399 C71.001493,68.8404087 70.128878,69.3680625 68.9224614,69.3680625 C67.1916873,69.3680625 66.1022327,68.1764103 66.1022327,66.3507556 L66.1022327,61.6605 L66.8421156,61.6605 L66.8421156,66.3507556 C66.8421156,67.753742 67.6279948,68.6440725 68.9802853,68.6440725 C70.4784497,68.6440725 71.5245364,67.5887649 71.5245364,65.6417635 L71.5245364,61.6605 Z" id="Fill-45" fill="#1B060A"></path>
                        <path d="M75.2652955,63.257253 C75.6904273,62.1936671 76.4843482,61.6605 77.6316918,61.6605 L77.6316918,62.3915435 C76.285868,62.3915435 75.2652955,63.3177153 75.2652955,65.1425758 L75.2652955,69.3680625 L74.5571694,69.3680625 L74.5571694,61.7676831 L75.2652955,61.7676831 L75.2652955,63.257253 Z" id="Fill-46" fill="#1B060A"></path>
                        <path d="M81.6917637,65.0857867 C82.9597594,65.3661102 84.5493673,65.6918195 84.5493673,67.2709754 C84.5493673,68.4963898 83.5001734,69.3680625 81.9395633,69.3680625 C80.5397592,69.3680625 79.534062,68.7179789 79.1689531,67.7288372 L79.7963605,67.360412 C80.0731579,68.1720154 80.8455545,68.6592444 81.9395633,68.6592444 C83.033572,68.6592444 83.8204675,68.1573318 83.8204675,67.2709754 C83.8204675,66.5474737 83.1350644,66.1189792 82.2611755,65.9267573 C80.9918617,65.6170665 79.4022537,65.3073758 79.4022537,63.7562522 C79.4022537,63.1662379 79.6355544,62.6643253 80.0876568,62.2651979 C80.5542582,61.8660706 81.1526678,61.6605 81.8815676,61.6605 C83.048071,61.6605 83.9522758,62.2358307 84.3595634,63.1368706 L83.747973,63.4906123 C83.4553586,62.7671105 82.7119598,62.3679832 81.8815676,62.3679832 C80.8903693,62.3679832 80.1311536,62.9152816 80.1311536,63.7562522 C80.1311536,64.4797539 80.8165567,64.8641976 81.6917637,65.0857867" id="Fill-47" fill="#1B060A"></path>
                        <path d="M93.7729347,68.6915806 C94.638904,68.6915806 95.3722593,68.3960178 95.9730006,67.8176322 C96.575068,67.2392465 96.8827325,66.5207233 96.8827325,65.6900901 C96.8827325,64.858183 96.575068,64.1396598 95.9730006,63.5612741 C95.3722593,62.9841624 94.638904,62.6873257 93.7729347,62.6873257 C92.9069654,62.6873257 92.1590226,62.9841624 91.5582813,63.5612741 C90.9562138,64.1396598 90.6631369,64.858183 90.6631369,65.6900901 C90.6631369,66.5207233 90.9562138,67.2392465 91.5582813,67.8176322 C92.1590226,68.3960178 92.9069654,68.6915806 93.7729347,68.6915806 L93.7729347,68.6915806 Z M96.8827325,59.3482312 L97.6160878,59.3482312 L97.6160878,69.2126373 L96.8827325,69.2126373 L96.8827325,67.5781244 C96.2819911,68.6915806 95.122945,69.3680625 93.7291721,69.3680625 C92.6722387,69.3680625 91.7784205,69.0151708 91.0291515,68.3106614 C90.2957962,67.5921382 89.9297816,66.7181898 89.9297816,65.6900901 C89.9297816,64.6607165 90.2957962,63.7867681 91.0291515,63.0822586 C91.7784205,62.3637355 92.6722387,62.0108437 93.7291721,62.0108437 C95.122945,62.0108437 96.2819911,62.6873257 96.8827325,63.8007818 L96.8827325,59.3482312 Z" id="Fill-48" fill="#1B060A"></path>
                        <path d="M101.699017,63.1515543 C101.122235,63.6681505 100.787153,64.3476014 100.711622,65.1752233 L106.818644,65.1752233 C106.743113,64.3035505 106.40803,63.609416 105.846354,63.122187 C105.284678,62.6202744 104.630992,62.3693181 103.856456,62.3693181 C102.98991,62.3693181 102.275799,62.634958 101.699017,63.1515543 M106.560465,62.8124963 C107.25947,63.5800488 107.608286,64.4957724 107.608286,65.5436485 C107.608286,65.6184014 107.59318,65.823972 107.59318,65.898725 L100.711622,65.898725 C100.802259,66.725012 101.137342,67.3897792 101.72923,67.9063755 C102.322491,68.4082881 103.066815,68.6592444 103.931987,68.6592444 C105.147349,68.6592444 106.089427,68.1279646 106.560465,67.3163612 L107.229258,67.69947 C106.605784,68.7179789 105.390422,69.3680625 103.916881,69.3680625 C102.746838,69.3680625 101.789654,69.0143209 101.045331,68.2908192 C100.301008,67.5673175 99.9219796,66.6369103 99.9219796,65.5142812 C99.9219796,64.4063358 100.285902,63.4906123 101.015119,62.7671105 C101.759442,62.0289252 102.701519,61.6605 103.856456,61.6605 C104.964702,61.6605 105.876567,62.0436088 106.560465,62.8124963" id="Fill-49" fill="#1B060A"></path>
                        <path d="M118.369114,68.3403875 C119.235084,68.3403875 119.968439,68.0448623 120.570506,67.4665502 C121.171248,66.888238 121.480238,66.1698062 121.480238,65.3392786 C121.480238,64.5074772 121.171248,63.7890454 120.570506,63.2107332 C119.968439,62.6336949 119.235084,62.3368959 118.369114,62.3368959 C117.504471,62.3368959 116.755202,62.6336949 116.154461,63.2107332 C115.552393,63.7890454 115.259317,64.5074772 115.259317,65.3392786 C115.259317,66.1698062 115.552393,66.888238 116.154461,67.4665502 C116.755202,68.0448623 117.504471,68.3403875 118.369114,68.3403875 M121.09831,62.7317787 C121.846253,63.4361985 122.212267,64.3100359 122.212267,65.3392786 C122.212267,66.3672476 121.846253,67.2410849 121.09831,67.9595167 C120.364955,68.6639366 119.46981,69.0167834 118.412877,69.0167834 C117.019104,69.0167834 115.860058,68.3403875 115.259317,67.2270729 L115.259317,71.6803312 L114.525961,71.6803312 L114.525961,61.8159055 L115.259317,61.8159055 L115.259317,63.4502105 C115.860058,62.3368959 117.019104,61.6605 118.412877,61.6605 C119.46981,61.6605 120.364955,62.0133468 121.09831,62.7317787" id="Fill-50" fill="#1B060A"></path>
                        <path d="M124.457655,63.257253 C124.882787,62.1936671 125.676707,61.6605 126.824051,61.6605 L126.824051,62.3915435 C125.478227,62.3915435 124.457655,63.3177153 124.457655,65.1425758 L124.457655,69.3680625 L123.749529,69.3680625 L123.749529,61.7676831 L124.457655,61.7676831 L124.457655,63.257253 Z" id="Fill-51" fill="#1B060A"></path>
                        <path d="M131.435835,59.8011194 L130.205586,61.1457112 L129.340568,61.1457112 L130.979984,59.3482312 L131.876582,59.3482312 L133.517371,61.1457112 L132.65098,61.1457112 L131.435835,59.8011194 Z M129.370775,63.4101521 C128.792723,63.9052587 128.459073,64.5564454 128.382183,65.34836 L134.489487,65.34836 C134.412596,64.514227 134.078946,63.8489675 133.517371,63.3820065 C132.954423,62.8996934 132.302226,62.6591765 131.526456,62.6591765 C130.661437,62.6591765 129.947454,62.9150455 129.370775,63.4101521 L129.370775,63.4101521 Z M134.231354,63.0839191 C134.928861,63.8208219 135.278988,64.6984527 135.278988,65.7027386 C135.278988,65.7731026 135.263884,65.9714011 135.263884,66.0417651 L128.382183,66.0417651 C128.474177,66.8349591 128.807826,67.472073 129.400982,67.9671796 C129.992764,68.4482133 130.736955,68.6887302 131.603346,68.6887302 C132.818491,68.6887302 133.7604,68.1795509 134.231354,67.4004297 L134.898654,67.7688811 C134.276665,68.7450214 133.06152,69.3680625 131.588243,69.3680625 C130.418408,69.3680625 129.461396,69.0277567 128.717206,68.3343516 C127.973015,67.6409465 127.592682,66.7505223 127.592682,65.674593 C127.592682,64.6127366 127.957912,63.7351058 128.686999,63.0417007 C129.431189,62.3342228 130.373098,61.9811236 131.526456,61.9811236 C132.635876,61.9811236 133.547578,62.3482956 134.231354,63.0839191 L134.231354,63.0839191 Z" id="Fill-52" fill="#1B060A"></path>
                        <path d="M140.659402,62.8280559 L138.443595,62.8280559 L138.443595,67.4856842 C138.443595,68.7333326 139.142757,68.7903383 140.659402,68.6465284 L140.659402,69.2917298 C138.650654,69.5780541 137.683928,69.0766626 137.683928,67.4856842 L137.683928,62.8280559 L136.047618,62.8280559 L136.047618,62.1258488 L137.683928,62.1258488 L137.683928,60.3340546 L138.443595,60.1189875 L138.443595,62.1258488 L140.659402,62.1258488 L140.659402,62.8280559 Z" id="Fill-53" fill="#1B060A"></path>
                        <path d="M147.097197,69.3680625 L148.056896,69.3680625 L148.056896,62.1956179 L147.097197,62.1956179 L147.097197,69.3680625 Z M148.34498,59.8860673 C148.384895,60.6317111 146.770934,60.6317111 146.809114,59.8860673 C146.770934,59.1689526 148.384895,59.1689526 148.34498,59.8860673 L148.34498,59.8860673 Z" id="Fill-54" fill="#1B060A"></path>
                        <path d="M161.412429,64.586456 L161.412429,69.3680625 L160.661073,69.3680625 L160.661073,64.586456 C160.661073,63.1834696 159.86488,62.38449 158.662439,62.38449 C157.324129,62.38449 156.407013,63.3048164 156.407013,65.1591035 L156.407013,69.3680625 L155.655657,69.3680625 L155.655657,64.586456 C155.655657,63.1834696 154.919247,62.38449 153.731751,62.38449 C152.409745,62.38449 151.401597,63.3348122 151.401597,65.1591035 L151.401597,69.3680625 L150.6516,69.3680625 L150.6516,61.8268405 L151.401597,61.8268405 L151.401597,63.123478 C151.928769,62.14316 152.724962,61.6605 153.822784,61.6605 C154.919247,61.6605 155.791526,62.2181496 156.166525,63.1984675 C156.692338,62.1731558 157.640704,61.6605 158.677385,61.6605 C160.314607,61.6605 161.412429,62.7308054 161.412429,64.586456" id="Fill-55" fill="#1B060A"></path>
                        <path d="M174.479149,64.586456 L174.479149,69.3680625 L173.727793,69.3680625 L173.727793,64.586456 C173.727793,63.1834696 172.931601,62.38449 171.729159,62.38449 C170.390849,62.38449 169.473733,63.3048164 169.473733,65.1591035 L169.473733,69.3680625 L168.722377,69.3680625 L168.722377,64.586456 C168.722377,63.1834696 167.985967,62.38449 166.798472,62.38449 C165.476466,62.38449 164.468318,63.3348122 164.468318,65.1591035 L164.468318,69.3680625 L163.71832,69.3680625 L163.71832,61.8268405 L164.468318,61.8268405 L164.468318,63.123478 C164.995489,62.14316 165.791682,61.6605 166.889504,61.6605 C167.985967,61.6605 168.858246,62.2181496 169.233245,63.1984675 C169.759058,62.1731558 170.707424,61.6605 171.744105,61.6605 C173.382686,61.6605 174.479149,62.7308054 174.479149,64.586456" id="Fill-56" fill="#1B060A"></path>
                        <path d="M179.867504,68.6593671 C180.731684,68.6593671 181.463524,68.34973 182.063024,67.7438021 C182.663847,67.1378743 182.956319,66.3851357 182.956319,65.5149486 C182.956319,64.6434268 182.663847,63.8906882 182.063024,63.2847604 C181.463524,62.6801671 180.731684,62.3691954 179.867504,62.3691954 C179.003324,62.3691954 178.256926,62.6801671 177.657426,63.2847604 C177.056602,63.8906882 176.764131,64.6434268 176.764131,65.5149486 C176.764131,66.3851357 177.056602,67.1378743 177.657426,67.7438021 C178.256926,68.34973 179.003324,68.6593671 179.867504,68.6593671 M177.129389,68.2603089 C176.382992,67.5075704 176.01641,66.5920054 176.01641,65.5149486 C176.01641,64.4365571 176.382992,63.5209921 177.129389,62.7829346 C177.87711,62.0301961 178.798197,61.6605 179.867504,61.6605 C180.936811,61.6605 181.828782,62.0301961 182.57518,62.7829346 C183.322901,63.5209921 183.702716,64.4365571 183.702716,65.5149486 C183.702716,66.5920054 183.322901,67.5075704 182.57518,68.2603089 C181.828782,68.9983664 180.936811,69.3680625 179.867504,69.3680625 C178.798197,69.3680625 177.87711,68.9983664 177.129389,68.2603089" id="Fill-57" fill="#1B060A"></path>
                        <path d="M189.851761,68.6915806 C190.71773,68.6915806 191.451086,68.3960178 192.053153,67.8176322 C192.653895,67.2392465 192.962885,66.5207233 192.962885,65.6900901 C192.962885,64.858183 192.653895,64.1396598 192.053153,63.5612741 C191.451086,62.9841624 190.71773,62.6873257 189.851761,62.6873257 C188.987118,62.6873257 188.237849,62.9841624 187.637108,63.5612741 C187.03504,64.1396598 186.741963,64.858183 186.741963,65.6900901 C186.741963,66.5207233 187.03504,67.2392465 187.637108,67.8176322 C188.237849,68.3960178 188.987118,68.6915806 189.851761,68.6915806 M192.580957,63.0822586 C193.3289,63.7867681 193.694914,64.6607165 193.694914,65.6900901 C193.694914,66.7181898 193.3289,67.5921382 192.580957,68.3106614 C191.847602,69.0151708 190.952457,69.3680625 189.895524,69.3680625 C188.501751,69.3680625 187.342705,68.6915806 186.741963,67.5781244 L186.741963,69.2126373 L186.008608,69.2126373 L186.008608,59.3482312 L186.741963,59.3482312 L186.741963,63.8007818 C187.342705,62.6873257 188.501751,62.0108437 189.895524,62.0108437 C190.952457,62.0108437 191.847602,62.3637355 192.580957,63.0822586" id="Fill-58" fill="#1B060A"></path>
                        <path d="M195.520938,69.3680625 L196.480675,69.3680625 L196.480675,62.1956179 L195.520938,62.1956179 L195.520938,69.3680625 Z M196.768769,59.8860673 C196.80695,60.6317111 195.194662,60.6317111 195.232843,59.8860673 C195.194662,59.1689526 196.80695,59.1689526 196.768769,59.8860673 L196.768769,59.8860673 Z" id="Fill-59" fill="#1B060A"></path>
                        <polygon id="Fill-60" fill="#1B060A" points="199.418906 69.3680625 200.269012 69.3680625 200.269012 58.577475 199.418906 58.577475"></polygon>
                        <path d="M201.669983,69.3680625 L202.629719,69.3680625 L202.629719,62.1956179 L201.669983,62.1956179 L201.669983,69.3680625 Z M202.917814,59.8860673 C202.955995,60.6317111 201.343707,60.6317111 201.381888,59.8860673 C201.343707,59.1689526 202.955995,59.1689526 202.917814,59.8860673 L202.917814,59.8860673 Z" id="Fill-61" fill="#1B060A"></path>
                        <path d="M207.001411,63.1515543 C206.424629,63.6681505 206.089546,64.3476014 206.014015,65.1752233 L212.121038,65.1752233 C212.045507,64.3035505 211.710424,63.609416 211.148748,63.122187 C210.587072,62.6202744 209.933386,62.3693181 209.15885,62.3693181 C208.292304,62.3693181 207.578193,62.634958 207.001411,63.1515543 M211.862859,62.8124963 C212.561864,63.5800488 212.91068,64.4957724 212.91068,65.5436485 C212.91068,65.6184014 212.895573,65.823972 212.895573,65.898725 L206.014015,65.898725 C206.104653,66.725012 206.439735,67.3897792 207.031624,67.9063755 C207.624885,68.4082881 208.369208,68.6592444 209.234381,68.6592444 C210.449743,68.6592444 211.39182,68.1279646 211.862859,67.3163612 L212.531651,67.69947 C211.908178,68.7179789 210.692816,69.3680625 209.219275,69.3680625 C208.049232,69.3680625 207.092048,69.0143209 206.347725,68.2908192 C205.603402,67.5673175 205.224373,66.6369103 205.224373,65.5142812 C205.224373,64.4063358 205.588295,63.4906123 206.317513,62.7671105 C207.061836,62.0289252 208.003913,61.6605 209.15885,61.6605 C210.267096,61.6605 211.17896,62.0436088 211.862859,62.8124963" id="Fill-62" fill="#1B060A"></path>
                        <path d="M215.924698,63.257253 C216.349829,62.1936671 217.14375,61.6605 218.291094,61.6605 L218.291094,62.3915435 C216.94527,62.3915435 215.924698,63.3177153 215.924698,65.1425758 L215.924698,69.3680625 L215.216571,69.3680625 L215.216571,61.7676831 L215.924698,61.7676831 L215.924698,63.257253 Z" id="Fill-63" fill="#1B060A"></path>
                        <path d="M219.284165,68.0516108 C219.57317,67.7618065 220.08354,67.7618065 220.372546,68.0516108 C220.661551,68.3414152 220.661551,68.8531973 220.372546,69.1430017 C220.08354,69.432806 219.57317,69.432806 219.284165,69.1430017 C218.99516,68.8531973 218.99516,68.3414152 219.284165,68.0516108 Z" id="Fill-64" fill="#1B060A"></path>
                    </g>
                </g>
            </g>
        </g>
    </g>
</svg>