<?xml version="1.0" encoding="UTF-8"?>
<svg width="60px" height="60px" viewBox="0 0 60 60" version="1.1" xmlns="http://www.w3.org/2000/svg" xmlns:xlink="http://www.w3.org/1999/xlink">
    <!-- Generator: Sketch 58 (84663) - https://sketch.com -->
    <title>bt/slider_left</title>
    <desc>Created with Sketch.</desc>
    <g id="Homepage---Webdesign---Acces-Courtage" stroke="none" stroke-width="1" fill="none" fill-rule="evenodd">
        <g id="-AC---Homepage---Desktop-HD" transform="translate(-850.000000, -3370.000000)">
            <g id="section/nos-clients" transform="translate(250.000000, 2820.000000)">
                <g id="bt/slider_left" transform="translate(600.000000, 550.000000)">
                    <rect id="background" fill="#4DC2F1" x="0" y="0" width="60" height="60"></rect>
                    <g id="icon/arrow_left" transform="translate(18.000000, 18.000000)">
                        <polygon id="Path" points="0 0 24 0 24 24 0 24"></polygon>
                        <polygon id="Path" fill="#FFFFFF" fill-rule="nonzero" points="15.41 16.59 10.83 12 15.41 7.41 14 6 8 12 14 18"></polygon>
                    </g>
                </g>
            </g>
        </g>
    </g>
</svg>